…
## Import

Import the data into tibbles named who and population

``` r
data(population)

population
```

    ## # A tibble: 4,060 × 3
    ##    country      year population
    ##    <chr>       <dbl>      <dbl>
    ##  1 Afghanistan  1995   17586073
    ##  2 Afghanistan  1996   18415307
    ##  3 Afghanistan  1997   19021226
    ##  4 Afghanistan  1998   19496836
    ##  5 Afghanistan  1999   19987071
    ##  6 Afghanistan  2000   20595360
    ##  7 Afghanistan  2001   21347782
    ##  8 Afghanistan  2002   22202806
    ##  9 Afghanistan  2003   23116142
    ## 10 Afghanistan  2004   24018682
    ## # ℹ 4,050 more rows

``` r
data(who)

who
```

    ## # A tibble: 7,240 × 60
    ##    country  iso2  iso3   year new_sp_m014 new_sp_m1524 new_sp_m2534 new_sp_m3544
    ##    <chr>    <chr> <chr> <dbl>       <dbl>        <dbl>        <dbl>        <dbl>
    ##  1 Afghani… AF    AFG    1980          NA           NA           NA           NA
    ##  2 Afghani… AF    AFG    1981          NA           NA           NA           NA
    ##  3 Afghani… AF    AFG    1982          NA           NA           NA           NA
    ##  4 Afghani… AF    AFG    1983          NA           NA           NA           NA
    ##  5 Afghani… AF    AFG    1984          NA           NA           NA           NA
    ##  6 Afghani… AF    AFG    1985          NA           NA           NA           NA
    ##  7 Afghani… AF    AFG    1986          NA           NA           NA           NA
    ##  8 Afghani… AF    AFG    1987          NA           NA           NA           NA
    ##  9 Afghani… AF    AFG    1988          NA           NA           NA           NA
    ## 10 Afghani… AF    AFG    1989          NA           NA           NA           NA
    ## # ℹ 7,230 more rows
    ## # ℹ 52 more variables: new_sp_m4554 <dbl>, new_sp_m5564 <dbl>,
    ## #   new_sp_m65 <dbl>, new_sp_f014 <dbl>, new_sp_f1524 <dbl>,
    ## #   new_sp_f2534 <dbl>, new_sp_f3544 <dbl>, new_sp_f4554 <dbl>,
    ## #   new_sp_f5564 <dbl>, new_sp_f65 <dbl>, new_sn_m014 <dbl>,
    ## #   new_sn_m1524 <dbl>, new_sn_m2534 <dbl>, new_sn_m3544 <dbl>,
    ## #   new_sn_m4554 <dbl>, new_sn_m5564 <dbl>, new_sn_m65 <dbl>, …

The population dataset having 4,060 rows and 3 columns while who dataset
having 7,240 rows and 60 columns.

Fix any anomalies and store the corrected data in population2:

``` r
population2 <- population %>% distinct()
population2 <- population %>%
  filter(population > 0)
population2 <- population %>% drop_na(population)
population2
```

    ## # A tibble: 4,060 × 3
    ##    country      year population
    ##    <chr>       <dbl>      <dbl>
    ##  1 Afghanistan  1995   17586073
    ##  2 Afghanistan  1996   18415307
    ##  3 Afghanistan  1997   19021226
    ##  4 Afghanistan  1998   19496836
    ##  5 Afghanistan  1999   19987071
    ##  6 Afghanistan  2000   20595360
    ##  7 Afghanistan  2001   21347782
    ##  8 Afghanistan  2002   22202806
    ##  9 Afghanistan  2003   23116142
    ## 10 Afghanistan  2004   24018682
    ## # ℹ 4,050 more rows
…
``` r
who2
```

    ## # A tibble: 405,440 × 8
    ##    country     iso2  iso3   year new   TB_Type gender count
    ##    <chr>       <chr> <chr> <dbl> <chr> <chr>   <chr>  <dbl>
    ##  1 Afghanistan AF    AFG    1980 new   sp      m014      NA
    ##  2 Afghanistan AF    AFG    1980 new   sp      m1524     NA
    ##  3 Afghanistan AF    AFG    1980 new   sp      m2534     NA
    ##  4 Afghanistan AF    AFG    1980 new   sp      m3544     NA
    ##  5 Afghanistan AF    AFG    1980 new   sp      m4554     NA
    ##  6 Afghanistan AF    AFG    1980 new   sp      m5564     NA
    ##  7 Afghanistan AF    AFG    1980 new   sp      m65       NA
    ##  8 Afghanistan AF    AFG    1980 new   sp      f014      NA
    ##  9 Afghanistan AF    AFG    1980 new   sp      f1524     NA
    ## 10 Afghanistan AF    AFG    1980 new   sp      f2534     NA
    ## # ℹ 405,430 more rows

Remove the column containing new, and further separate values like f014
into f and 014, storing the result in who_tidy

``` r
who_tidy <- who2 %>%
  separate(col = gender, into = c("gender", "age_range"), sep = "(?<=^[mf])") %>%
  select(-new)

who_tidy
```

    ## # A tibble: 405,440 × 8
    ##    country     iso2  iso3   year TB_Type gender age_range count
    ##    <chr>       <chr> <chr> <dbl> <chr>   <chr>  <chr>     <dbl>
    ##  1 Afghanistan AF    AFG    1980 sp      m      014          NA
    ##  2 Afghanistan AF    AFG    1980 sp      m      1524         NA
    ##  3 Afghanistan AF    AFG    1980 sp      m      2534         NA
    ##  4 Afghanistan AF    AFG    1980 sp      m      3544         NA
    ##  5 Afghanistan AF    AFG    1980 sp      m      4554         NA
    ##  6 Afghanistan AF    AFG    1980 sp      m      5564         NA
    ##  7 Afghanistan AF    AFG    1980 sp      m      65           NA
    ##  8 Afghanistan AF    AFG    1980 sp      f      014          NA
    ##  9 Afghanistan AF    AFG    1980 sp      f      1524         NA
    ## 10 Afghanistan AF    AFG    1980 sp      f      2534         NA
    ## # ℹ 405,430 more rows
…
Cast the population variable to an appropriate data type, storing the
result in population_tidy

``` r
population_tidy<-population2 %>% 
  mutate(population= as.integer(population))

population_tidy
```

    ## # A tibble: 4,060 × 3
    ##    country      year population
    ##    <chr>       <dbl>      <int>
    ##  1 Afghanistan  1995   17586073
    ##  2 Afghanistan  1996   18415307
    ##  3 Afghanistan  1997   19021226
    ##  4 Afghanistan  1998   19496836
    ##  5 Afghanistan  1999   19987071
    ##  6 Afghanistan  2000   20595360
    ##  7 Afghanistan  2001   21347782
    ##  8 Afghanistan  2002   22202806
    ##  9 Afghanistan  2003   23116142
    ## 10 Afghanistan  2004   24018682
    ## # ℹ 4,050 more rows

## Join Datasets

Join the datasets into a tibble called tuberculosis.

``` r
tuberculosis<-population_tidy %>% 
  left_join(who_tidy, by=c("country", "year"))
tuberculosis<-tuberculosis %>%
  mutate(count=as.integer(count))

tuberculosis
```

    ## # A tibble: 226,095 × 9
    ##    country      year population iso2  iso3  TB_Type gender age_range count
    ##    <chr>       <dbl>      <int> <chr> <chr> <chr>   <chr>  <chr>     <int>
    ##  1 Afghanistan  1995   17586073 AF    AFG   sp      m      014          NA
    ##  2 Afghanistan  1995   17586073 AF    AFG   sp      m      1524         NA
    ##  3 Afghanistan  1995   17586073 AF    AFG   sp      m      2534         NA
    ##  4 Afghanistan  1995   17586073 AF    AFG   sp      m      3544         NA
    ##  5 Afghanistan  1995   17586073 AF    AFG   sp      m      4554         NA
    ##  6 Afghanistan  1995   17586073 AF    AFG   sp      m      5564         NA
    ##  7 Afghanistan  1995   17586073 AF    AFG   sp      m      65           NA
    ##  8 Afghanistan  1995   17586073 AF    AFG   sp      f      014          NA
    ##  9 Afghanistan  1995   17586073 AF    AFG   sp      f      1524         NA
    ## 10 Afghanistan  1995   17586073 AF    AFG   sp      f      2534         NA
    ## # ℹ 226,085 more rows
…
The country and year with the highest cases per 100k.

The country and year with the lowest cases per 100k.

``` r
tuberculosis <- tuberculosis %>%
  mutate(cases_per_100k = (count / population) * 100000) %>%
  group_by(country,year, gender, age_range, TB_Type, population) %>%
  summarize(cases_per_100k = sum(cases_per_100k, na.rm = TRUE), .groups = "drop")
tuberculosis
```

    ## # A tibble: 226,095 × 7
    ##    country      year gender age_range TB_Type population cases_per_100k
    ##    <chr>       <dbl> <chr>  <chr>     <chr>        <int>          <dbl>
    ##  1 Afghanistan  1995 f      014       ep        17586073              0
    ##  2 Afghanistan  1995 f      014       rel       17586073              0
    ##  3 Afghanistan  1995 f      014       sn        17586073              0
    ##  4 Afghanistan  1995 f      014       sp        17586073              0
    ##  5 Afghanistan  1995 f      1524      ep        17586073              0
    ##  6 Afghanistan  1995 f      1524      rel       17586073              0
    ##  7 Afghanistan  1995 f      1524      sn        17586073              0
    ##  8 Afghanistan  1995 f      1524      sp        17586073              0
    ##  9 Afghanistan  1995 f      2534      ep        17586073              0
    ## 10 Afghanistan  1995 f      2534      rel       17586073              0
    ## # ℹ 226,085 more rows
…
