…
tidy_data <- tidy_data %>%
  select(-matches("\\.x$")) %>%
  select(-matches("\\.y$"))

tidy_data <- tidy_data %>%
  mutate(Payroll_p_year = as.numeric(Payroll_p_year))


tidy_data <- tidy_data %>%
  rename(team_name = Team.name.2014)

tidy_data
```

    ## # A tibble: 510 × 7
    ##    team_name            Year  Payroll_p_year num_wins payroll avgwin pct_wins
    ##    <fct>                <chr>          <dbl>    <int>   <dbl>  <dbl>    <dbl>
    ##  1 Arizona Diamondbacks 1998            31.6       65    1.12  0.490    0.399
    ##  2 Arizona Diamondbacks 1999            70.5      100    1.12  0.490    0.613
    ##  3 Arizona Diamondbacks 2000            81.0       85    1.12  0.490    0.525
    ##  4 Arizona Diamondbacks 2001            81.2       92    1.12  0.490    0.568
    ##  5 Arizona Diamondbacks 2002           103.        98    1.12  0.490    0.605
    ##  6 Arizona Diamondbacks 2003            80.6       84    1.12  0.490    0.519
    ##  7 Arizona Diamondbacks 2004            70.2       51    1.12  0.490    0.315
    ##  8 Arizona Diamondbacks 2005            63.0       77    1.12  0.490    0.475
    ##  9 Arizona Diamondbacks 2006            59.7       76    1.12  0.490    0.469
    ## 10 Arizona Diamondbacks 2007            52.1       90    1.12  0.490    0.552
    ## # ℹ 500 more rows
…
``` r
mlb_yearly <- tidy_data %>%
  select(-payroll, -avgwin)
mlb_yearly
```

    ## # A tibble: 510 × 5
    ##    team_name            Year  Payroll_p_year num_wins pct_wins
    ##    <fct>                <chr>          <dbl>    <int>    <dbl>
    ##  1 Arizona Diamondbacks 1998            31.6       65    0.399
    ##  2 Arizona Diamondbacks 1999            70.5      100    0.613
    ##  3 Arizona Diamondbacks 2000            81.0       85    0.525
    ##  4 Arizona Diamondbacks 2001            81.2       92    0.568
    ##  5 Arizona Diamondbacks 2002           103.        98    0.605
    ##  6 Arizona Diamondbacks 2003            80.6       84    0.519
    ##  7 Arizona Diamondbacks 2004            70.2       51    0.315
    ##  8 Arizona Diamondbacks 2005            63.0       77    0.475
    ##  9 Arizona Diamondbacks 2006            59.7       76    0.469
    ## 10 Arizona Diamondbacks 2007            52.1       90    0.552
    ## # ℹ 500 more rows
…
Create a new tibble mlb_aggregate_computed based on the data from
mlb_yearly, then join the newly created tibble to mlb_aggregate to
compare and visualize later on.

``` r
mlb_aggregate_computed <- mlb_yearly %>%
  group_by(team_name) %>%
  summarise(
    payroll_aggregate_computed = sum(Payroll_p_year, na.rm = TRUE), 
    pct_wins_aggregate_computed = mean(pct_wins, na.rm = TRUE) 
  )
mlb_aggregate_computed
```

    ## # A tibble: 30 × 3
    ##    team_name            payroll_aggregate_computed pct_wins_aggregate_computed
    ##    <fct>                                     <dbl>                       <dbl>
    ##  1 Arizona Diamondbacks                      1223.                       0.492
    ##  2 Atlanta Braves                            1518.                       0.563
    ##  3 Baltimore Orioles                         1305.                       0.457
    ##  4 Boston Red Sox                            2104.                       0.551
    ##  5 Chicago Cubs                              1552.                       0.475
    ##  6 Chicago White Sox                         1375.                       0.507
    ##  7 Cincinnati Reds                           1119.                       0.491
    ##  8 Cleveland Indians                         1113.                       0.505
    ##  9 Colorado Rockies                          1129.                       0.463
    ## 10 Detroit Tigers                            1484.                       0.474
    ## # ℹ 20 more rows
…
