FA4_AFUNDAR_DATAMINING
================
Audrie Lex L. Afundar
2025-03-06

## 1.1 Import

``` r
bmd_data<-read_excel("D:/Download folder/bmd-data.xlsx")
bmd_data
```

    ## # A tibble: 169 × 9
    ##    idnum   age sex   fracture weight_kg height_cm medication waiting_time spnbmd
    ##    <dbl> <dbl> <chr> <chr>        <dbl>     <dbl> <chr>             <dbl>  <dbl>
    ##  1   469  57.1 F     no frac…        64      156. Anticonvu…           18  0.879
    ##  2  8724  75.7 F     no frac…        78      162  No medica…           56  0.795
    ##  3  6736  70.8 M     no frac…        73      170. No medica…           10  0.907
    ##  4 24180  78.2 F     no frac…        60      148  No medica…           14  0.711
    ##  5 17072  54.2 M     no frac…        55      161  No medica…           20  0.791
    ##  6  3806  77.2 M     no frac…        65      168  No medica…            7  0.730
    ##  7 17106  56.2 M     no frac…        77      159  No medica…           26  1.01 
    ##  8 23834  49.9 F     no frac…        59      150  No medica…            9  0.731
    ##  9  2454  68.4 M     no frac…        64      167  Glucocort…            6  0.689
    ## 10  2088  66.3 M     no frac…        72      160. No medica…           10  0.947
    ## # ℹ 159 more rows
…
``` r
bmd_data$age<-as.integer(bmd_data$age)

bmd<-bmd_data

bmd
```

    ## # A tibble: 169 × 9
    ##    idnum   age sex   fracture weight_kg height_cm medication waiting_time spnbmd
    ##    <dbl> <int> <chr> <chr>        <dbl>     <dbl> <chr>             <dbl>  <dbl>
    ##  1   469    57 F     no frac…        64      156. Anticonvu…           18  0.879
    ##  2  8724    75 F     no frac…        78      162  No medica…           56  0.795
    ##  3  6736    70 M     no frac…        73      170. No medica…           10  0.907
    ##  4 24180    78 F     no frac…        60      148  No medica…           14  0.711
    ##  5 17072    54 M     no frac…        55      161  No medica…           20  0.791
    ##  6  3806    77 M     no frac…        65      168  No medica…            7  0.730
    ##  7 17106    56 M     no frac…        77      159  No medica…           26  1.01 
    ##  8 23834    49 F     no frac…        59      150  No medica…            9  0.731
    ##  9  2454    68 M     no frac…        64      167  Glucocort…            6  0.689
    ## 10  2088    66 M     no frac…        72      160. No medica…           10  0.947
    ## # ℹ 159 more rows
…
4.  Increasing K tend to worsen the prediction rule due to it having a
    high bias, making the data to simple and cause underfitting.
    However, if the K is too low, this also might cause a problem due to
    having high variance. To counteract this, having a good K that will
    balance bias and variance together will be the best for the data.

## 2.3 K nearest neighbors regression

``` r
data_tree
```

    ## # A tibble: 6,174 × 5
    ##        K    X1    X2    bias variance
    ##    <dbl> <dbl> <dbl>   <dbl>    <dbl>
    ##  1     1     0     0 -0.25       16.2
    ##  2     1     0    10  0.14       12.2
    ##  3     1     0    20 -0.523      20.4
    ##  4     1     0    30  0.109      15.6
    ##  5     1     0    40 -0.566      21.4
    ##  6     1     0    50 -0.336      15.9
    ##  7     1     0    60 -1.04       12.4
    ##  8     1     0    70 -0.0213     12.4
    ##  9     1     0    80  0.045      18.3
    ## 10     1     0    90 -0.312      14.7
    ## # ℹ 6,164 more rows
…
